{  
  "Filters":[  
    {  
      "Options":[  
        {  
          "Selected":false,
          "DocCount":3,
          "Name":"Cat",
          "Key":"Cat",
          "ModelType":"TermOption"
        },
        {  
          "Selected":false,
          "DocCount":2,
          "Name":"Dog",
          "Key":"Dog",
          "ModelType":"TermOption"
        },
        {  
          "Selected":false,
          "DocCount":1,
          "Name":"Rabbit",
          "Key":"Rabbit",
          "ModelType":"TermOption"
        }
      ],
      "Name":"AnimalType",
      "Key":"AnimalType",
      "Description":null,
      "IconUrl":null,
      "ModelType":"BucketFilter"
    }
  ],
  "Documents":[  
    { 
      "AnimalType":"Cat",
      "Name":"Tabby", 
      "EyeColour":"blue",
      "Age":3,
      "Id": 1
    },
    { 
      "AnimalType":"Cat",
      "Name":"Bobby", 
      "EyeColour":"brown",
      "Age":1,
      "Id": 2
    },
    { 
      "AnimalType":"Cat",
      "Name":"Ellie", 
      "EyeColour":"green",
      "Age":9,
      "Id": 3
    },
    { 
      "AnimalType":"Dog",
      "Name":"Duke", 
      "EyeColour":"black",
      "Age":12,
      "Id": 4
    },
    { 
      "AnimalType":"Dog",
      "Name":"Sammy", 
      "EyeColour":"green",
      "Age":5,
      "Id": 5
    },
    { 
      "AnimalType":"Rabbit",
      "Name":"Buggs", 
      "EyeColour":"blue",
      "Age":3,
      "Id": 6
    }

  ],
  "Total": 6
}